backcall==0.1.0
bleach==2.1.3
certifi==2018.4.16
chardet==3.0.4
decorator==4.3.0
defusedxml==0.5.0
dj-database-url==0.5.0
Django==2.0.6
django-allauth==0.36.0
django-autoslug-iplweb==1.9.4.dev0
django-crispy-forms==1.7.2
django-fobi==0.13.2
django-formtools==2.1
django-heroku==0.3.1
django-nine==0.1.13
django-nonefield==0.2
django-postgrespool==0.3.1
easy-thumbnails==2.5
gunicorn==19.9.0
html5lib==1.0.1
idna==2.7
ipython==6.4.0
ipython-genutils==0.2.0
jedi==0.12.0
oauthlib==2.1.0
parso==0.2.1
pexpect==4.6.0
pickleshare==0.7.4
Pillow==5.2.0
prompt-toolkit==1.0.15
psycopg2==2.7.5
ptyprocess==0.6.0
Pygments==2.2.0
python3-openid==3.1.0
pytz==2018.4
requests==2.19.1
requests-oauthlib==1.0.0
simplegeneric==0.8.1
simplejson==3.16.0
six==1.11.0
SQLAlchemy==1.2.11
traitlets==4.3.2
Unidecode==1.0.22
urllib3==1.23
vishap==0.1.5
wcwidth==0.1.7
webencodings==0.5.1
whitenoise==3.3.1
